{
  "login": "user",
  "password": "$2a$10$VEjxo0jq2YG9Rbk2HmX9S.k1uZBGYUHdUcid3g/vfiEl7lwWgOH/K",

  "first_name": "User",
  "last_name": "User",
  "email": "user@localhost",
  "activated": true,
  "lang_key": "en",
  "created_by": "system",
  "last_modified_by": "system",
  "authorities": ["ROLE_USER"],
  "_class": "com.elenx.awerkon.domain.User"
}
